Command line invocation:
    /Applications/Xcode.app/Contents/Developer/usr/bin/xcodebuild -project /Users/sean/git/bitrisetestios2/bitrisetestios2.xcodeproj -scheme bitrisetestios2 clean archive -archivePath /var/folders/1m/gl91w9qn6kb7z4k7_0t0d3980000gn/T/__codesigndoc__812799869/bitrisetestios2.xcarchive

User defaults from command line:
    IDEArchivePathOverride = /var/folders/1m/gl91w9qn6kb7z4k7_0t0d3980000gn/T/__codesigndoc__812799869/bitrisetestios2.xcarchive

note: Using new build system
note: Building targets in parallel

** CLEAN SUCCEEDED **

note: Using new build system
note: Building targets in parallel
note: Planning build
note: Constructing build description
CreateBuildDirectory /Users/sean/Library/Developer/Xcode/DerivedData/bitrisetestios2-fktanifztdkhwmdctevrgogqmnsy/Build/Intermediates.noindex/ArchiveIntermediates/bitrisetestios2/IntermediateBuildFilesPath (in target 'bitrisetestios2' from project 'bitrisetestios2')
    cd /Users/sean/git/bitrisetestios2
    builtin-create-build-directory /Users/sean/Library/Developer/Xcode/DerivedData/bitrisetestios2-fktanifztdkhwmdctevrgogqmnsy/Build/Intermediates.noindex/ArchiveIntermediates/bitrisetestios2/IntermediateBuildFilesPath

CreateBuildDirectory /Users/sean/Library/Developer/Xcode/DerivedData/bitrisetestios2-fktanifztdkhwmdctevrgogqmnsy/Build/Intermediates.noindex/ArchiveIntermediates/bitrisetestios2/BuildProductsPath (in target 'bitrisetestios2' from project 'bitrisetestios2')
    cd /Users/sean/git/bitrisetestios2
    builtin-create-build-directory /Users/sean/Library/Developer/Xcode/DerivedData/bitrisetestios2-fktanifztdkhwmdctevrgogqmnsy/Build/Intermediates.noindex/ArchiveIntermediates/bitrisetestios2/BuildProductsPath

CreateBuildDirectory /Users/sean/Library/Developer/Xcode/DerivedData/bitrisetestios2-fktanifztdkhwmdctevrgogqmnsy/Build/Intermediates.noindex/ArchiveIntermediates/bitrisetestios2/InstallationBuildProductsLocation (in target 'bitrisetestios2' from project 'bitrisetestios2')
    cd /Users/sean/git/bitrisetestios2
    builtin-create-build-directory /Users/sean/Library/Developer/Xcode/DerivedData/bitrisetestios2-fktanifztdkhwmdctevrgogqmnsy/Build/Intermediates.noindex/ArchiveIntermediates/bitrisetestios2/InstallationBuildProductsLocation

MkDir /Users/sean/Library/Developer/Xcode/DerivedData/bitrisetestios2-fktanifztdkhwmdctevrgogqmnsy/Build/Intermediates.noindex/ArchiveIntermediates/bitrisetestios2/InstallationBuildProductsLocation/Applications/bitrisetestios2.app (in target 'bitrisetestios2' from project 'bitrisetestios2')
    cd /Users/sean/git/bitrisetestios2
    /bin/mkdir -p /Users/sean/Library/Developer/Xcode/DerivedData/bitrisetestios2-fktanifztdkhwmdctevrgogqmnsy/Build/Intermediates.noindex/ArchiveIntermediates/bitrisetestios2/InstallationBuildProductsLocation/Applications/bitrisetestios2.app

SymLink /Users/sean/Library/Developer/Xcode/DerivedData/bitrisetestios2-fktanifztdkhwmdctevrgogqmnsy/Build/Intermediates.noindex/ArchiveIntermediates/bitrisetestios2/BuildProductsPath/Release-iphoneos/bitrisetestios2.app /Users/sean/Library/Developer/Xcode/DerivedData/bitrisetestios2-fktanifztdkhwmdctevrgogqmnsy/Build/Intermediates.noindex/ArchiveIntermediates/bitrisetestios2/InstallationBuildProductsLocation/Applications/bitrisetestios2.app (in target 'bitrisetestios2' from project 'bitrisetestios2')
    cd /Users/sean/git/bitrisetestios2
    /bin/ln -sfh /Users/sean/Library/Developer/Xcode/DerivedData/bitrisetestios2-fktanifztdkhwmdctevrgogqmnsy/Build/Intermediates.noindex/ArchiveIntermediates/bitrisetestios2/InstallationBuildProductsLocation/Applications/bitrisetestios2.app /Users/sean/Library/Developer/Xcode/DerivedData/bitrisetestios2-fktanifztdkhwmdctevrgogqmnsy/Build/Intermediates.noindex/ArchiveIntermediates/bitrisetestios2/BuildProductsPath/Release-iphoneos/bitrisetestios2.app

ProcessProductPackaging /Users/sean/Library/MobileDevice/Provisioning\ Profiles/0cac0985-41c7-44ac-9ddf-9e25b810b339.mobileprovision /Users/sean/Library/Developer/Xcode/DerivedData/bitrisetestios2-fktanifztdkhwmdctevrgogqmnsy/Build/Intermediates.noindex/ArchiveIntermediates/bitrisetestios2/InstallationBuildProductsLocation/Applications/bitrisetestios2.app/embedded.mobileprovision (in target 'bitrisetestios2' from project 'bitrisetestios2')
    cd /Users/sean/git/bitrisetestios2
    builtin-productPackagingUtility /Users/sean/Library/MobileDevice/Provisioning\ Profiles/0cac0985-41c7-44ac-9ddf-9e25b810b339.mobileprovision -o /Users/sean/Library/Developer/Xcode/DerivedData/bitrisetestios2-fktanifztdkhwmdctevrgogqmnsy/Build/Intermediates.noindex/ArchiveIntermediates/bitrisetestios2/InstallationBuildProductsLocation/Applications/bitrisetestios2.app/embedded.mobileprovision

WriteAuxiliaryFile /Users/sean/Library/Developer/Xcode/DerivedData/bitrisetestios2-fktanifztdkhwmdctevrgogqmnsy/Build/Intermediates.noindex/ArchiveIntermediates/bitrisetestios2/IntermediateBuildFilesPath/bitrisetestios2.build/Release-iphoneos/bitrisetestios2.build/DerivedSources/Entitlements.plist (in target 'bitrisetestios2' from project 'bitrisetestios2')
    cd /Users/sean/git/bitrisetestios2
    write-file /Users/sean/Library/Developer/Xcode/DerivedData/bitrisetestios2-fktanifztdkhwmdctevrgogqmnsy/Build/Intermediates.noindex/ArchiveIntermediates/bitrisetestios2/IntermediateBuildFilesPath/bitrisetestios2.build/Release-iphoneos/bitrisetestios2.build/DerivedSources/Entitlements.plist

ProcessProductPackaging "" /Users/sean/Library/Developer/Xcode/DerivedData/bitrisetestios2-fktanifztdkhwmdctevrgogqmnsy/Build/Intermediates.noindex/ArchiveIntermediates/bitrisetestios2/IntermediateBuildFilesPath/bitrisetestios2.build/Release-iphoneos/bitrisetestios2.build/bitrisetestios2.app.xcent (in target 'bitrisetestios2' from project 'bitrisetestios2')
    cd /Users/sean/git/bitrisetestios2
    

Entitlements:

{
    "application-identifier" = "NFCF82XX22.com.seankang.bitriseiostest2.bitrisetestios2";
    "com.apple.developer.team-identifier" = NFCF82XX22;
    "get-task-allow" = 1;
    "keychain-access-groups" =     (
        "NFCF82XX22.com.seankang.bitriseiostest2.bitrisetestios2"
    );
}


    builtin-productPackagingUtility -entitlements -format xml -o /Users/sean/Library/Developer/Xcode/DerivedData/bitrisetestios2-fktanifztdkhwmdctevrgogqmnsy/Build/Intermediates.noindex/ArchiveIntermediates/bitrisetestios2/IntermediateBuildFilesPath/bitrisetestios2.build/Release-iphoneos/bitrisetestios2.build/bitrisetestios2.app.xcent

WriteAuxiliaryFile /Users/sean/Library/Developer/Xcode/DerivedData/bitrisetestios2-fktanifztdkhwmdctevrgogqmnsy/Build/Intermediates.noindex/ArchiveIntermediates/bitrisetestios2/IntermediateBuildFilesPath/bitrisetestios2.build/Release-iphoneos/bitrisetestios2.build/bitrisetestios2.hmap (in target 'bitrisetestios2' from project 'bitrisetestios2')
    cd /Users/sean/git/bitrisetestios2
    write-file /Users/sean/Library/Developer/Xcode/DerivedData/bitrisetestios2-fktanifztdkhwmdctevrgogqmnsy/Build/Intermediates.noindex/ArchiveIntermediates/bitrisetestios2/IntermediateBuildFilesPath/bitrisetestios2.build/Release-iphoneos/bitrisetestios2.build/bitrisetestios2.hmap

WriteAuxiliaryFile /Users/sean/Library/Developer/Xcode/DerivedData/bitrisetestios2-fktanifztdkhwmdctevrgogqmnsy/Build/Intermediates.noindex/ArchiveIntermediates/bitrisetestios2/IntermediateBuildFilesPath/bitrisetestios2.build/Release-iphoneos/bitrisetestios2.build/bitrisetestios2-own-target-headers.hmap (in target 'bitrisetestios2' from project 'bitrisetestios2')
    cd /Users/sean/git/bitrisetestios2
    write-file /Users/sean/Library/Developer/Xcode/DerivedData/bitrisetestios2-fktanifztdkhwmdctevrgogqmnsy/Build/Intermediates.noindex/ArchiveIntermediates/bitrisetestios2/IntermediateBuildFilesPath/bitrisetestios2.build/Release-iphoneos/bitrisetestios2.build/bitrisetestios2-own-target-headers.hmap

WriteAuxiliaryFile /Users/sean/Library/Developer/Xcode/DerivedData/bitrisetestios2-fktanifztdkhwmdctevrgogqmnsy/Build/Intermediates.noindex/ArchiveIntermediates/bitrisetestios2/IntermediateBuildFilesPath/bitrisetestios2.build/Release-iphoneos/bitrisetestios2.build/bitrisetestios2-generated-files.hmap (in target 'bitrisetestios2' from project 'bitrisetestios2')
    cd /Users/sean/git/bitrisetestios2
    write-file /Users/sean/Library/Developer/Xcode/DerivedData/bitrisetestios2-fktanifztdkhwmdctevrgogqmnsy/Build/Intermediates.noindex/ArchiveIntermediates/bitrisetestios2/IntermediateBuildFilesPath/bitrisetestios2.build/Release-iphoneos/bitrisetestios2.build/bitrisetestios2-generated-files.hmap

WriteAuxiliaryFile /Users/sean/Library/Developer/Xcode/DerivedData/bitrisetestios2-fktanifztdkhwmdctevrgogqmnsy/Build/Intermediates.noindex/ArchiveIntermediates/bitrisetestios2/IntermediateBuildFilesPath/bitrisetestios2.build/Release-iphoneos/bitrisetestios2.build/bitrisetestios2-project-headers.hmap (in target 'bitrisetestios2' from project 'bitrisetestios2')
    cd /Users/sean/git/bitrisetestios2
    write-file /Users/sean/Library/Developer/Xcode/DerivedData/bitrisetestios2-fktanifztdkhwmdctevrgogqmnsy/Build/Intermediates.noindex/ArchiveIntermediates/bitrisetestios2/IntermediateBuildFilesPath/bitrisetestios2.build/Release-iphoneos/bitrisetestios2.build/bitrisetestios2-project-headers.hmap

WriteAuxiliaryFile /Users/sean/Library/Developer/Xcode/DerivedData/bitrisetestios2-fktanifztdkhwmdctevrgogqmnsy/Build/Intermediates.noindex/ArchiveIntermediates/bitrisetestios2/IntermediateBuildFilesPath/bitrisetestios2.build/Release-iphoneos/bitrisetestios2.build/bitrisetestios2-all-target-headers.hmap (in target 'bitrisetestios2' from project 'bitrisetestios2')
    cd /Users/sean/git/bitrisetestios2
    write-file /Users/sean/Library/Developer/Xcode/DerivedData/bitrisetestios2-fktanifztdkhwmdctevrgogqmnsy/Build/Intermediates.noindex/ArchiveIntermediates/bitrisetestios2/IntermediateBuildFilesPath/bitrisetestios2.build/Release-iphoneos/bitrisetestios2.build/bitrisetestios2-all-target-headers.hmap

WriteAuxiliaryFile /Users/sean/Library/Developer/Xcode/DerivedData/bitrisetestios2-fktanifztdkhwmdctevrgogqmnsy/Build/Intermediates.noindex/ArchiveIntermediates/bitrisetestios2/IntermediateBuildFilesPath/bitrisetestios2.build/Release-iphoneos/bitrisetestios2.build/bitrisetestios2-all-non-framework-target-headers.hmap (in target 'bitrisetestios2' from project 'bitrisetestios2')
    cd /Users/sean/git/bitrisetestios2
    write-file /Users/sean/Library/Developer/Xcode/DerivedData/bitrisetestios2-fktanifztdkhwmdctevrgogqmnsy/Build/Intermediates.noindex/ArchiveIntermediates/bitrisetestios2/IntermediateBuildFilesPath/bitrisetestios2.build/Release-iphoneos/bitrisetestios2.build/bitrisetestios2-all-non-framework-target-headers.hmap

WriteAuxiliaryFile /Users/sean/Library/Developer/Xcode/DerivedData/bitrisetestios2-fktanifztdkhwmdctevrgogqmnsy/Build/Intermediates.noindex/ArchiveIntermediates/bitrisetestios2/IntermediateBuildFilesPath/bitrisetestios2.build/Release-iphoneos/bitrisetestios2.build/all-product-headers.yaml (in target 'bitrisetestios2' from project 'bitrisetestios2')
    cd /Users/sean/git/bitrisetestios2
    write-file /Users/sean/Library/Developer/Xcode/DerivedData/bitrisetestios2-fktanifztdkhwmdctevrgogqmnsy/Build/Intermediates.noindex/ArchiveIntermediates/bitrisetestios2/IntermediateBuildFilesPath/bitrisetestios2.build/Release-iphoneos/bitrisetestios2.build/all-product-headers.yaml

WriteAuxiliaryFile /Users/sean/Library/Developer/Xcode/DerivedData/bitrisetestios2-fktanifztdkhwmdctevrgogqmnsy/Build/Intermediates.noindex/ArchiveIntermediates/bitrisetestios2/IntermediateBuildFilesPath/bitrisetestios2.build/Release-iphoneos/bitrisetestios2.build/Objects-normal/arm64/bitrisetestios2-OutputFileMap.json (in target 'bitrisetestios2' from project 'bitrisetestios2')
    cd /Users/sean/git/bitrisetestios2
    write-file /Users/sean/Library/Developer/Xcode/DerivedData/bitrisetestios2-fktanifztdkhwmdctevrgogqmnsy/Build/Intermediates.noindex/ArchiveIntermediates/bitrisetestios2/IntermediateBuildFilesPath/bitrisetestios2.build/Release-iphoneos/bitrisetestios2.build/Objects-normal/arm64/bitrisetestios2-OutputFileMap.json

WriteAuxiliaryFile /Users/sean/Library/Developer/Xcode/DerivedData/bitrisetestios2-fktanifztdkhwmdctevrgogqmnsy/Build/Intermediates.noindex/ArchiveIntermediates/bitrisetestios2/IntermediateBuildFilesPath/bitrisetestios2.build/Release-iphoneos/bitrisetestios2.build/Objects-normal/arm64/bitrisetestios2.LinkFileList (in target 'bitrisetestios2' from project 'bitrisetestios2')
    cd /Users/sean/git/bitrisetestios2
    write-file /Users/sean/Library/Developer/Xcode/DerivedData/bitrisetestios2-fktanifztdkhwmdctevrgogqmnsy/Build/Intermediates.noindex/ArchiveIntermediates/bitrisetestios2/IntermediateBuildFilesPath/bitrisetestios2.build/Release-iphoneos/bitrisetestios2.build/Objects-normal/arm64/bitrisetestios2.LinkFileList

WriteAuxiliaryFile /Users/sean/Library/Developer/Xcode/DerivedData/bitrisetestios2-fktanifztdkhwmdctevrgogqmnsy/Build/Intermediates.noindex/ArchiveIntermediates/bitrisetestios2/IntermediateBuildFilesPath/bitrisetestios2.build/Release-iphoneos/bitrisetestios2.build/Objects-normal/arm64/bitrisetestios2.SwiftFileList (in target 'bitrisetestios2' from project 'bitrisetestios2')
    cd /Users/sean/git/bitrisetestios2
    write-file /Users/sean/Library/Developer/Xcode/DerivedData/bitrisetestios2-fktanifztdkhwmdctevrgogqmnsy/Build/Intermediates.noindex/ArchiveIntermediates/bitrisetestios2/IntermediateBuildFilesPath/bitrisetestios2.build/Release-iphoneos/bitrisetestios2.build/Objects-normal/arm64/bitrisetestios2.SwiftFileList

CompileSwiftSources normal arm64 com.apple.xcode.tools.swift.compiler (in target 'bitrisetestios2' from project 'bitrisetestios2')
    cd /Users/sean/git/bitrisetestios2
    export DEVELOPER_DIR\=/Applications/Xcode.app/Contents/Developer
    export SDKROOT\=/Applications/Xcode.app/Contents/Developer/Platforms/iPhoneOS.platform/Developer/SDKs/iPhoneOS14.2.sdk
    /Applications/Xcode.app/Contents/Developer/Toolchains/XcodeDefault.xctoolchain/usr/bin/swiftc -incremental -module-name bitrisetestios2 -O -whole-module-optimization -enforce-exclusivity\=checked @/Users/sean/Library/Developer/Xcode/DerivedData/bitrisetestios2-fktanifztdkhwmdctevrgogqmnsy/Build/Intermediates.noindex/ArchiveIntermediates/bitrisetestios2/IntermediateBuildFilesPath/bitrisetestios2.build/Release-iphoneos/bitrisetestios2.build/Objects-normal/arm64/bitrisetestios2.SwiftFileList -sdk /Applications/Xcode.app/Contents/Developer/Platforms/iPhoneOS.platform/Developer/SDKs/iPhoneOS14.2.sdk -target arm64-apple-ios14.2 -g -module-cache-path /Users/sean/Library/Developer/Xcode/DerivedData/ModuleCache.noindex -Xfrontend -serialize-debugging-options -embed-bitcode -swift-version 5 -I /Users/sean/Library/Developer/Xcode/DerivedData/bitrisetestios2-fktanifztdkhwmdctevrgogqmnsy/Build/Intermediates.noindex/ArchiveIntermediates/bitrisetestios2/BuildProductsPath/Release-iphoneos -F /Users/sean/Library/Developer/Xcode/DerivedData/bitrisetestios2-fktanifztdkhwmdctevrgogqmnsy/Build/Intermediates.noindex/ArchiveIntermediates/bitrisetestios2/BuildProductsPath/Release-iphoneos -c -num-threads 4 -output-file-map /Users/sean/Library/Developer/Xcode/DerivedData/bitrisetestios2-fktanifztdkhwmdctevrgogqmnsy/Build/Intermediates.noindex/ArchiveIntermediates/bitrisetestios2/IntermediateBuildFilesPath/bitrisetestios2.build/Release-iphoneos/bitrisetestios2.build/Objects-normal/arm64/bitrisetestios2-OutputFileMap.json -parseable-output -serialize-diagnostics -emit-dependencies -emit-module -emit-module-path /Users/sean/Library/Developer/Xcode/DerivedData/bitrisetestios2-fktanifztdkhwmdctevrgogqmnsy/Build/Intermediates.noindex/ArchiveIntermediates/bitrisetestios2/IntermediateBuildFilesPath/bitrisetestios2.build/Release-iphoneos/bitrisetestios2.build/Objects-normal/arm64/bitrisetestios2.swiftmodule -Xcc -I/Users/sean/Library/Developer/Xcode/DerivedData/bitrisetestios2-fktanifztdkhwmdctevrgogqmnsy/Build/Intermediates.noindex/ArchiveIntermediates/bitrisetestios2/IntermediateBuildFilesPath/bitrisetestios2.build/Release-iphoneos/bitrisetestios2.build/swift-overrides.hmap -Xcc -iquote -Xcc /Users/sean/Library/Developer/Xcode/DerivedData/bitrisetestios2-fktanifztdkhwmdctevrgogqmnsy/Build/Intermediates.noindex/ArchiveIntermediates/bitrisetestios2/IntermediateBuildFilesPath/bitrisetestios2.build/Release-iphoneos/bitrisetestios2.build/bitrisetestios2-generated-files.hmap -Xcc -I/Users/sean/Library/Developer/Xcode/DerivedData/bitrisetestios2-fktanifztdkhwmdctevrgogqmnsy/Build/Intermediates.noindex/ArchiveIntermediates/bitrisetestios2/IntermediateBuildFilesPath/bitrisetestios2.build/Release-iphoneos/bitrisetestios2.build/bitrisetestios2-own-target-headers.hmap -Xcc -I/Users/sean/Library/Developer/Xcode/DerivedData/bitrisetestios2-fktanifztdkhwmdctevrgogqmnsy/Build/Intermediates.noindex/ArchiveIntermediates/bitrisetestios2/IntermediateBuildFilesPath/bitrisetestios2.build/Release-iphoneos/bitrisetestios2.build/bitrisetestios2-all-target-headers.hmap -Xcc -iquote -Xcc /Users/sean/Library/Developer/Xcode/DerivedData/bitrisetestios2-fktanifztdkhwmdctevrgogqmnsy/Build/Intermediates.noindex/ArchiveIntermediates/bitrisetestios2/IntermediateBuildFilesPath/bitrisetestios2.build/Release-iphoneos/bitrisetestios2.build/bitrisetestios2-project-headers.hmap -Xcc -I/Users/sean/Library/Developer/Xcode/DerivedData/bitrisetestios2-fktanifztdkhwmdctevrgogqmnsy/Build/Intermediates.noindex/ArchiveIntermediates/bitrisetestios2/BuildProductsPath/Release-iphoneos/include -Xcc -I/Users/sean/Library/Developer/Xcode/DerivedData/bitrisetestios2-fktanifztdkhwmdctevrgogqmnsy/Build/Intermediates.noindex/ArchiveIntermediates/bitrisetestios2/IntermediateBuildFilesPath/bitrisetestios2.build/Release-iphoneos/bitrisetestios2.build/DerivedSources-normal/arm64 -Xcc -I/Users/sean/Library/Developer/Xcode/DerivedData/bitrisetestios2-fktanifztdkhwmdctevrgogqmnsy/Build/Intermediates.noindex/ArchiveIntermediates/bitrisetestios2/IntermediateBuildFilesPath/bitrisetestios2.build/Release-iphoneos/bitrisetestios2.build/DerivedSources/arm64 -Xcc -I/Users/sean/Library/Developer/Xcode/DerivedData/bitrisetestios2-fktanifztdkhwmdctevrgogqmnsy/Build/Intermediates.noindex/ArchiveIntermediates/bitrisetestios2/IntermediateBuildFilesPath/bitrisetestios2.build/Release-iphoneos/bitrisetestios2.build/DerivedSources -emit-objc-header -emit-objc-header-path /Users/sean/Library/Developer/Xcode/DerivedData/bitrisetestios2-fktanifztdkhwmdctevrgogqmnsy/Build/Intermediates.noindex/ArchiveIntermediates/bitrisetestios2/IntermediateBuildFilesPath/bitrisetestios2.build/Release-iphoneos/bitrisetestios2.build/Objects-normal/arm64/bitrisetestios2-Swift.h -working-directory /Users/sean/git/bitrisetestios2

CompileSwift normal arm64 (in target 'bitrisetestios2' from project 'bitrisetestios2')
    cd /Users/sean/git/bitrisetestios2
    /Applications/Xcode.app/Contents/Developer/Toolchains/XcodeDefault.xctoolchain/usr/bin/swift -frontend -emit-bc /Users/sean/git/bitrisetestios2/bitrisetestios2/AppDelegate.swift /Users/sean/git/bitrisetestios2/bitrisetestios2/SceneDelegate.swift /Users/sean/git/bitrisetestios2/bitrisetestios2/ContentView.swift -emit-module-path /Users/sean/Library/Developer/Xcode/DerivedData/bitrisetestios2-fktanifztdkhwmdctevrgogqmnsy/Build/Intermediates.noindex/ArchiveIntermediates/bitrisetestios2/IntermediateBuildFilesPath/bitrisetestios2.build/Release-iphoneos/bitrisetestios2.build/Objects-normal/arm64/bitrisetestios2.swiftmodule -emit-module-doc-path /Users/sean/Library/Developer/Xcode/DerivedData/bitrisetestios2-fktanifztdkhwmdctevrgogqmnsy/Build/Intermediates.noindex/ArchiveIntermediates/bitrisetestios2/IntermediateBuildFilesPath/bitrisetestios2.build/Release-iphoneos/bitrisetestios2.build/Objects-normal/arm64/bitrisetestios2.swiftdoc -emit-module-source-info-path /Users/sean/Library/Developer/Xcode/DerivedData/bitrisetestios2-fktanifztdkhwmdctevrgogqmnsy/Build/Intermediates.noindex/ArchiveIntermediates/bitrisetestios2/IntermediateBuildFilesPath/bitrisetestios2.build/Release-iphoneos/bitrisetestios2.build/Objects-normal/arm64/bitrisetestios2.swiftsourceinfo -serialize-diagnostics-path /Users/sean/Library/Developer/Xcode/DerivedData/bitrisetestios2-fktanifztdkhwmdctevrgogqmnsy/Build/Intermediates.noindex/ArchiveIntermediates/bitrisetestios2/IntermediateBuildFilesPath/bitrisetestios2.build/Release-iphoneos/bitrisetestios2.build/Objects-normal/arm64/bitrisetestios2-master.dia -emit-objc-header-path /Users/sean/Library/Developer/Xcode/DerivedData/bitrisetestios2-fktanifztdkhwmdctevrgogqmnsy/Build/Intermediates.noindex/ArchiveIntermediates/bitrisetestios2/IntermediateBuildFilesPath/bitrisetestios2.build/Release-iphoneos/bitrisetestios2.build/Objects-normal/arm64/bitrisetestios2-Swift.h -emit-dependencies-path /Users/sean/Library/Developer/Xcode/DerivedData/bitrisetestios2-fktanifztdkhwmdctevrgogqmnsy/Build/Intermediates.noindex/ArchiveIntermediates/bitrisetestios2/IntermediateBuildFilesPath/bitrisetestios2.build/Release-iphoneos/bitrisetestios2.build/Objects-normal/arm64/bitrisetestios2-master.d -target arm64-apple-ios14.2 -Xllvm -aarch64-use-tbi -enable-objc-interop -stack-check -sdk /Applications/Xcode.app/Contents/Developer/Platforms/iPhoneOS.platform/Developer/SDKs/iPhoneOS14.2.sdk -I /Users/sean/Library/Developer/Xcode/DerivedData/bitrisetestios2-fktanifztdkhwmdctevrgogqmnsy/Build/Intermediates.noindex/ArchiveIntermediates/bitrisetestios2/BuildProductsPath/Release-iphoneos -F /Users/sean/Library/Developer/Xcode/DerivedData/bitrisetestios2-fktanifztdkhwmdctevrgogqmnsy/Build/Intermediates.noindex/ArchiveIntermediates/bitrisetestios2/BuildProductsPath/Release-iphoneos -g -module-cache-path /Users/sean/Library/Developer/Xcode/DerivedData/ModuleCache.noindex -swift-version 5 -enforce-exclusivity\=checked -O -serialize-debugging-options -Xcc -working-directory -Xcc /Users/sean/git/bitrisetestios2 -Xcc -I/Users/sean/Library/Developer/Xcode/DerivedData/bitrisetestios2-fktanifztdkhwmdctevrgogqmnsy/Build/Intermediates.noindex/ArchiveIntermediates/bitrisetestios2/IntermediateBuildFilesPath/bitrisetestios2.build/Release-iphoneos/bitrisetestios2.build/swift-overrides.hmap -Xcc -iquote -Xcc /Users/sean/Library/Developer/Xcode/DerivedData/bitrisetestios2-fktanifztdkhwmdctevrgogqmnsy/Build/Intermediates.noindex/ArchiveIntermediates/bitrisetestios2/IntermediateBuildFilesPath/bitrisetestios2.build/Release-iphoneos/bitrisetestios2.build/bitrisetestios2-generated-files.hmap -Xcc -I/Users/sean/Library/Developer/Xcode/DerivedData/bitrisetestios2-fktanifztdkhwmdctevrgogqmnsy/Build/Intermediates.noindex/ArchiveIntermediates/bitrisetestios2/IntermediateBuildFilesPath/bitrisetestios2.build/Release-iphoneos/bitrisetestios2.build/bitrisetestios2-own-target-headers.hmap -Xcc -I/Users/sean/Library/Developer/Xcode/DerivedData/bitrisetestios2-fktanifztdkhwmdctevrgogqmnsy/Build/Intermediates.noindex/ArchiveIntermediates/bitrisetestios2/IntermediateBuildFilesPath/bitrisetestios2.build/Release-iphoneos/bitrisetestios2.build/bitrisetestios2-all-target-headers.hmap -Xcc -iquote -Xcc /Users/sean/Library/Developer/Xcode/DerivedData/bitrisetestios2-fktanifztdkhwmdctevrgogqmnsy/Build/Intermediates.noindex/ArchiveIntermediates/bitrisetestios2/IntermediateBuildFilesPath/bitrisetestios2.build/Release-iphoneos/bitrisetestios2.build/bitrisetestios2-project-headers.hmap -Xcc -I/Users/sean/Library/Developer/Xcode/DerivedData/bitrisetestios2-fktanifztdkhwmdctevrgogqmnsy/Build/Intermediates.noindex/ArchiveIntermediates/bitrisetestios2/BuildProductsPath/Release-iphoneos/include -Xcc -I/Users/sean/Library/Developer/Xcode/DerivedData/bitrisetestios2-fktanifztdkhwmdctevrgogqmnsy/Build/Intermediates.noindex/ArchiveIntermediates/bitrisetestios2/IntermediateBuildFilesPath/bitrisetestios2.build/Release-iphoneos/bitrisetestios2.build/DerivedSources-normal/arm64 -Xcc -I/Users/sean/Library/Developer/Xcode/DerivedData/bitrisetestios2-fktanifztdkhwmdctevrgogqmnsy/Build/Intermediates.noindex/ArchiveIntermediates/bitrisetestios2/IntermediateBuildFilesPath/bitrisetestios2.build/Release-iphoneos/bitrisetestios2.build/DerivedSources/arm64 -Xcc -I/Users/sean/Library/Developer/Xcode/DerivedData/bitrisetestios2-fktanifztdkhwmdctevrgogqmnsy/Build/Intermediates.noindex/ArchiveIntermediates/bitrisetestios2/IntermediateBuildFilesPath/bitrisetestios2.build/Release-iphoneos/bitrisetestios2.build/DerivedSources -target-sdk-version 14.2 -module-name bitrisetestios2 -num-threads 4 -o /Users/sean/Library/Developer/Xcode/DerivedData/bitrisetestios2-fktanifztdkhwmdctevrgogqmnsy/Build/Intermediates.noindex/ArchiveIntermediates/bitrisetestios2/IntermediateBuildFilesPath/bitrisetestios2.build/Release-iphoneos/bitrisetestios2.build/Objects-normal/arm64/AppDelegate.bc -o /Users/sean/Library/Developer/Xcode/DerivedData/bitrisetestios2-fktanifztdkhwmdctevrgogqmnsy/Build/Intermediates.noindex/ArchiveIntermediates/bitrisetestios2/IntermediateBuildFilesPath/bitrisetestios2.build/Release-iphoneos/bitrisetestios2.build/Objects-normal/arm64/SceneDelegate.bc -o /Users/sean/Library/Developer/Xcode/DerivedData/bitrisetestios2-fktanifztdkhwmdctevrgogqmnsy/Build/Intermediates.noindex/ArchiveIntermediates/bitrisetestios2/IntermediateBuildFilesPath/bitrisetestios2.build/Release-iphoneos/bitrisetestios2.build/Objects-normal/arm64/ContentView.bc

SwiftCodeGeneration normal arm64 (in target 'bitrisetestios2' from project 'bitrisetestios2')
    cd /Users/sean/git/bitrisetestios2
    /Applications/Xcode.app/Contents/Developer/Toolchains/XcodeDefault.xctoolchain/usr/bin/swift -frontend -c -primary-file /Users/sean/Library/Developer/Xcode/DerivedData/bitrisetestios2-fktanifztdkhwmdctevrgogqmnsy/Build/Intermediates.noindex/ArchiveIntermediates/bitrisetestios2/IntermediateBuildFilesPath/bitrisetestios2.build/Release-iphoneos/bitrisetestios2.build/Objects-normal/arm64/AppDelegate.bc -embed-bitcode -target arm64-apple-ios14.2 -Xllvm -aarch64-use-tbi -O -disable-llvm-optzns -module-name bitrisetestios2 -o /Users/sean/Library/Developer/Xcode/DerivedData/bitrisetestios2-fktanifztdkhwmdctevrgogqmnsy/Build/Intermediates.noindex/ArchiveIntermediates/bitrisetestios2/IntermediateBuildFilesPath/bitrisetestios2.build/Release-iphoneos/bitrisetestios2.build/Objects-normal/arm64/AppDelegate.o

SwiftCodeGeneration normal arm64 (in target 'bitrisetestios2' from project 'bitrisetestios2')
    cd /Users/sean/git/bitrisetestios2
    /Applications/Xcode.app/Contents/Developer/Toolchains/XcodeDefault.xctoolchain/usr/bin/swift -frontend -c -primary-file /Users/sean/Library/Developer/Xcode/DerivedData/bitrisetestios2-fktanifztdkhwmdctevrgogqmnsy/Build/Intermediates.noindex/ArchiveIntermediates/bitrisetestios2/IntermediateBuildFilesPath/bitrisetestios2.build/Release-iphoneos/bitrisetestios2.build/Objects-normal/arm64/SceneDelegate.bc -embed-bitcode -target arm64-apple-ios14.2 -Xllvm -aarch64-use-tbi -O -disable-llvm-optzns -module-name bitrisetestios2 -o /Users/sean/Library/Developer/Xcode/DerivedData/bitrisetestios2-fktanifztdkhwmdctevrgogqmnsy/Build/Intermediates.noindex/ArchiveIntermediates/bitrisetestios2/IntermediateBuildFilesPath/bitrisetestios2.build/Release-iphoneos/bitrisetestios2.build/Objects-normal/arm64/SceneDelegate.o

SwiftCodeGeneration normal arm64 (in target 'bitrisetestios2' from project 'bitrisetestios2')
    cd /Users/sean/git/bitrisetestios2
    /Applications/Xcode.app/Contents/Developer/Toolchains/XcodeDefault.xctoolchain/usr/bin/swift -frontend -c -primary-file /Users/sean/Library/Developer/Xcode/DerivedData/bitrisetestios2-fktanifztdkhwmdctevrgogqmnsy/Build/Intermediates.noindex/ArchiveIntermediates/bitrisetestios2/IntermediateBuildFilesPath/bitrisetestios2.build/Release-iphoneos/bitrisetestios2.build/Objects-normal/arm64/ContentView.bc -embed-bitcode -target arm64-apple-ios14.2 -Xllvm -aarch64-use-tbi -O -disable-llvm-optzns -module-name bitrisetestios2 -o /Users/sean/Library/Developer/Xcode/DerivedData/bitrisetestios2-fktanifztdkhwmdctevrgogqmnsy/Build/Intermediates.noindex/ArchiveIntermediates/bitrisetestios2/IntermediateBuildFilesPath/bitrisetestios2.build/Release-iphoneos/bitrisetestios2.build/Objects-normal/arm64/ContentView.o

Ditto /Users/sean/Library/Developer/Xcode/DerivedData/bitrisetestios2-fktanifztdkhwmdctevrgogqmnsy/Build/Intermediates.noindex/ArchiveIntermediates/bitrisetestios2/IntermediateBuildFilesPath/bitrisetestios2.build/Release-iphoneos/bitrisetestios2.build/DerivedSources/bitrisetestios2-Swift.h /Users/sean/Library/Developer/Xcode/DerivedData/bitrisetestios2-fktanifztdkhwmdctevrgogqmnsy/Build/Intermediates.noindex/ArchiveIntermediates/bitrisetestios2/IntermediateBuildFilesPath/bitrisetestios2.build/Release-iphoneos/bitrisetestios2.build/Objects-normal/arm64/bitrisetestios2-Swift.h (in target 'bitrisetestios2' from project 'bitrisetestios2')
    cd /Users/sean/git/bitrisetestios2
    /usr/bin/ditto -rsrc /Users/sean/Library/Developer/Xcode/DerivedData/bitrisetestios2-fktanifztdkhwmdctevrgogqmnsy/Build/Intermediates.noindex/ArchiveIntermediates/bitrisetestios2/IntermediateBuildFilesPath/bitrisetestios2.build/Release-iphoneos/bitrisetestios2.build/Objects-normal/arm64/bitrisetestios2-Swift.h /Users/sean/Library/Developer/Xcode/DerivedData/bitrisetestios2-fktanifztdkhwmdctevrgogqmnsy/Build/Intermediates.noindex/ArchiveIntermediates/bitrisetestios2/IntermediateBuildFilesPath/bitrisetestios2.build/Release-iphoneos/bitrisetestios2.build/DerivedSources/bitrisetestios2-Swift.h

Ld /Users/sean/Library/Developer/Xcode/DerivedData/bitrisetestios2-fktanifztdkhwmdctevrgogqmnsy/Build/Intermediates.noindex/ArchiveIntermediates/bitrisetestios2/InstallationBuildProductsLocation/Applications/bitrisetestios2.app/bitrisetestios2 normal (in target 'bitrisetestios2' from project 'bitrisetestios2')
    cd /Users/sean/git/bitrisetestios2
    /Applications/Xcode.app/Contents/Developer/Toolchains/XcodeDefault.xctoolchain/usr/bin/clang -target arm64-apple-ios14.2 -isysroot /Applications/Xcode.app/Contents/Developer/Platforms/iPhoneOS.platform/Developer/SDKs/iPhoneOS14.2.sdk -L/Users/sean/Library/Developer/Xcode/DerivedData/bitrisetestios2-fktanifztdkhwmdctevrgogqmnsy/Build/Intermediates.noindex/ArchiveIntermediates/bitrisetestios2/BuildProductsPath/Release-iphoneos -F/Users/sean/Library/Developer/Xcode/DerivedData/bitrisetestios2-fktanifztdkhwmdctevrgogqmnsy/Build/Intermediates.noindex/ArchiveIntermediates/bitrisetestios2/BuildProductsPath/Release-iphoneos -filelist /Users/sean/Library/Developer/Xcode/DerivedData/bitrisetestios2-fktanifztdkhwmdctevrgogqmnsy/Build/Intermediates.noindex/ArchiveIntermediates/bitrisetestios2/IntermediateBuildFilesPath/bitrisetestios2.build/Release-iphoneos/bitrisetestios2.build/Objects-normal/arm64/bitrisetestios2.LinkFileList -Xlinker -rpath -Xlinker @executable_path/Frameworks -dead_strip -Xlinker -object_path_lto -Xlinker /Users/sean/Library/Developer/Xcode/DerivedData/bitrisetestios2-fktanifztdkhwmdctevrgogqmnsy/Build/Intermediates.noindex/ArchiveIntermediates/bitrisetestios2/IntermediateBuildFilesPath/bitrisetestios2.build/Release-iphoneos/bitrisetestios2.build/Objects-normal/arm64/bitrisetestios2_lto.o -fembed-bitcode -Xlinker -bitcode_verify -Xlinker -bitcode_hide_symbols -Xlinker -bitcode_symbol_map -Xlinker /Users/sean/Library/Developer/Xcode/DerivedData/bitrisetestios2-fktanifztdkhwmdctevrgogqmnsy/Build/Intermediates.noindex/ArchiveIntermediates/bitrisetestios2/BuildProductsPath/Release-iphoneos -Xlinker -final_output -Xlinker /Applications/bitrisetestios2.app/bitrisetestios2 -fobjc-link-runtime -L/Applications/Xcode.app/Contents/Developer/Toolchains/XcodeDefault.xctoolchain/usr/lib/swift/iphoneos -L/usr/lib/swift -Xlinker -add_ast_path -Xlinker /Users/sean/Library/Developer/Xcode/DerivedData/bitrisetestios2-fktanifztdkhwmdctevrgogqmnsy/Build/Intermediates.noindex/ArchiveIntermediates/bitrisetestios2/IntermediateBuildFilesPath/bitrisetestios2.build/Release-iphoneos/bitrisetestios2.build/Objects-normal/arm64/bitrisetestios2.swiftmodule -Xlinker -no_adhoc_codesign -Xlinker -dependency_info -Xlinker /Users/sean/Library/Developer/Xcode/DerivedData/bitrisetestios2-fktanifztdkhwmdctevrgogqmnsy/Build/Intermediates.noindex/ArchiveIntermediates/bitrisetestios2/IntermediateBuildFilesPath/bitrisetestios2.build/Release-iphoneos/bitrisetestios2.build/Objects-normal/arm64/bitrisetestios2_dependency_info.dat -o /Users/sean/Library/Developer/Xcode/DerivedData/bitrisetestios2-fktanifztdkhwmdctevrgogqmnsy/Build/Intermediates.noindex/ArchiveIntermediates/bitrisetestios2/InstallationBuildProductsLocation/Applications/bitrisetestios2.app/bitrisetestios2

Ditto /Users/sean/Library/Developer/Xcode/DerivedData/bitrisetestios2-fktanifztdkhwmdctevrgogqmnsy/Build/Intermediates.noindex/ArchiveIntermediates/bitrisetestios2/BuildProductsPath/Release-iphoneos/bitrisetestios2.swiftmodule/arm64.swiftdoc /Users/sean/Library/Developer/Xcode/DerivedData/bitrisetestios2-fktanifztdkhwmdctevrgogqmnsy/Build/Intermediates.noindex/ArchiveIntermediates/bitrisetestios2/IntermediateBuildFilesPath/bitrisetestios2.build/Release-iphoneos/bitrisetestios2.build/Objects-normal/arm64/bitrisetestios2.swiftdoc (in target 'bitrisetestios2' from project 'bitrisetestios2')
    cd /Users/sean/git/bitrisetestios2
    /usr/bin/ditto -rsrc /Users/sean/Library/Developer/Xcode/DerivedData/bitrisetestios2-fktanifztdkhwmdctevrgogqmnsy/Build/Intermediates.noindex/ArchiveIntermediates/bitrisetestios2/IntermediateBuildFilesPath/bitrisetestios2.build/Release-iphoneos/bitrisetestios2.build/Objects-normal/arm64/bitrisetestios2.swiftdoc /Users/sean/Library/Developer/Xcode/DerivedData/bitrisetestios2-fktanifztdkhwmdctevrgogqmnsy/Build/Intermediates.noindex/ArchiveIntermediates/bitrisetestios2/BuildProductsPath/Release-iphoneos/bitrisetestios2.swiftmodule/arm64.swiftdoc

Ditto /Users/sean/Library/Developer/Xcode/DerivedData/bitrisetestios2-fktanifztdkhwmdctevrgogqmnsy/Build/Intermediates.noindex/ArchiveIntermediates/bitrisetestios2/BuildProductsPath/Release-iphoneos/bitrisetestios2.swiftmodule/arm64.swiftmodule /Users/sean/Library/Developer/Xcode/DerivedData/bitrisetestios2-fktanifztdkhwmdctevrgogqmnsy/Build/Intermediates.noindex/ArchiveIntermediates/bitrisetestios2/IntermediateBuildFilesPath/bitrisetestios2.build/Release-iphoneos/bitrisetestios2.build/Objects-normal/arm64/bitrisetestios2.swiftmodule (in target 'bitrisetestios2' from project 'bitrisetestios2')
    cd /Users/sean/git/bitrisetestios2
    /usr/bin/ditto -rsrc /Users/sean/Library/Developer/Xcode/DerivedData/bitrisetestios2-fktanifztdkhwmdctevrgogqmnsy/Build/Intermediates.noindex/ArchiveIntermediates/bitrisetestios2/IntermediateBuildFilesPath/bitrisetestios2.build/Release-iphoneos/bitrisetestios2.build/Objects-normal/arm64/bitrisetestios2.swiftmodule /Users/sean/Library/Developer/Xcode/DerivedData/bitrisetestios2-fktanifztdkhwmdctevrgogqmnsy/Build/Intermediates.noindex/ArchiveIntermediates/bitrisetestios2/BuildProductsPath/Release-iphoneos/bitrisetestios2.swiftmodule/arm64.swiftmodule

Ditto /Users/sean/Library/Developer/Xcode/DerivedData/bitrisetestios2-fktanifztdkhwmdctevrgogqmnsy/Build/Intermediates.noindex/ArchiveIntermediates/bitrisetestios2/BuildProductsPath/Release-iphoneos/bitrisetestios2.swiftmodule/arm64-apple-ios.swiftmodule /Users/sean/Library/Developer/Xcode/DerivedData/bitrisetestios2-fktanifztdkhwmdctevrgogqmnsy/Build/Intermediates.noindex/ArchiveIntermediates/bitrisetestios2/IntermediateBuildFilesPath/bitrisetestios2.build/Release-iphoneos/bitrisetestios2.build/Objects-normal/arm64/bitrisetestios2.swiftmodule (in target 'bitrisetestios2' from project 'bitrisetestios2')
    cd /Users/sean/git/bitrisetestios2
    /usr/bin/ditto -rsrc /Users/sean/Library/Developer/Xcode/DerivedData/bitrisetestios2-fktanifztdkhwmdctevrgogqmnsy/Build/Intermediates.noindex/ArchiveIntermediates/bitrisetestios2/IntermediateBuildFilesPath/bitrisetestios2.build/Release-iphoneos/bitrisetestios2.build/Objects-normal/arm64/bitrisetestios2.swiftmodule /Users/sean/Library/Developer/Xcode/DerivedData/bitrisetestios2-fktanifztdkhwmdctevrgogqmnsy/Build/Intermediates.noindex/ArchiveIntermediates/bitrisetestios2/BuildProductsPath/Release-iphoneos/bitrisetestios2.swiftmodule/arm64-apple-ios.swiftmodule

Ditto /Users/sean/Library/Developer/Xcode/DerivedData/bitrisetestios2-fktanifztdkhwmdctevrgogqmnsy/Build/Intermediates.noindex/ArchiveIntermediates/bitrisetestios2/BuildProductsPath/Release-iphoneos/bitrisetestios2.swiftmodule/arm64-apple-ios.swiftdoc /Users/sean/Library/Developer/Xcode/DerivedData/bitrisetestios2-fktanifztdkhwmdctevrgogqmnsy/Build/Intermediates.noindex/ArchiveIntermediates/bitrisetestios2/IntermediateBuildFilesPath/bitrisetestios2.build/Release-iphoneos/bitrisetestios2.build/Objects-normal/arm64/bitrisetestios2.swiftdoc (in target 'bitrisetestios2' from project 'bitrisetestios2')
    cd /Users/sean/git/bitrisetestios2
    /usr/bin/ditto -rsrc /Users/sean/Library/Developer/Xcode/DerivedData/bitrisetestios2-fktanifztdkhwmdctevrgogqmnsy/Build/Intermediates.noindex/ArchiveIntermediates/bitrisetestios2/IntermediateBuildFilesPath/bitrisetestios2.build/Release-iphoneos/bitrisetestios2.build/Objects-normal/arm64/bitrisetestios2.swiftdoc /Users/sean/Library/Developer/Xcode/DerivedData/bitrisetestios2-fktanifztdkhwmdctevrgogqmnsy/Build/Intermediates.noindex/ArchiveIntermediates/bitrisetestios2/BuildProductsPath/Release-iphoneos/bitrisetestios2.swiftmodule/arm64-apple-ios.swiftdoc

CompileStoryboard /Users/sean/git/bitrisetestios2/bitrisetestios2/Base.lproj/LaunchScreen.storyboard (in target 'bitrisetestios2' from project 'bitrisetestios2')
    cd /Users/sean/git/bitrisetestios2
    export XCODE_DEVELOPER_USR_PATH\=/Applications/Xcode.app/Contents/Developer/usr/bin/..
    /Applications/Xcode.app/Contents/Developer/usr/bin/ibtool --errors --warnings --notices --module bitrisetestios2 --output-partial-info-plist /Users/sean/Library/Developer/Xcode/DerivedData/bitrisetestios2-fktanifztdkhwmdctevrgogqmnsy/Build/Intermediates.noindex/ArchiveIntermediates/bitrisetestios2/IntermediateBuildFilesPath/bitrisetestios2.build/Release-iphoneos/bitrisetestios2.build/Base.lproj/LaunchScreen-SBPartialInfo.plist --auto-activate-custom-fonts --target-device iphone --target-device ipad --minimum-deployment-target 14.2 --output-format human-readable-text --compilation-directory /Users/sean/Library/Developer/Xcode/DerivedData/bitrisetestios2-fktanifztdkhwmdctevrgogqmnsy/Build/Intermediates.noindex/ArchiveIntermediates/bitrisetestios2/IntermediateBuildFilesPath/bitrisetestios2.build/Release-iphoneos/bitrisetestios2.build/Base.lproj /Users/sean/git/bitrisetestios2/bitrisetestios2/Base.lproj/LaunchScreen.storyboard

CompileAssetCatalog /Users/sean/Library/Developer/Xcode/DerivedData/bitrisetestios2-fktanifztdkhwmdctevrgogqmnsy/Build/Intermediates.noindex/ArchiveIntermediates/bitrisetestios2/InstallationBuildProductsLocation/Applications/bitrisetestios2.app /Users/sean/git/bitrisetestios2/bitrisetestios2/Assets.xcassets (in target 'bitrisetestios2' from project 'bitrisetestios2')
    cd /Users/sean/git/bitrisetestios2
    /Applications/Xcode.app/Contents/Developer/usr/bin/actool --output-format human-readable-text --notices --warnings --export-dependency-info /Users/sean/Library/Developer/Xcode/DerivedData/bitrisetestios2-fktanifztdkhwmdctevrgogqmnsy/Build/Intermediates.noindex/ArchiveIntermediates/bitrisetestios2/IntermediateBuildFilesPath/bitrisetestios2.build/Release-iphoneos/bitrisetestios2.build/assetcatalog_dependencies --output-partial-info-plist /Users/sean/Library/Developer/Xcode/DerivedData/bitrisetestios2-fktanifztdkhwmdctevrgogqmnsy/Build/Intermediates.noindex/ArchiveIntermediates/bitrisetestios2/IntermediateBuildFilesPath/bitrisetestios2.build/Release-iphoneos/bitrisetestios2.build/assetcatalog_generated_info.plist --app-icon AppIcon --accent-color AccentColor --compress-pngs --enable-on-demand-resources YES --development-region en --target-device iphone --target-device ipad --minimum-deployment-target 14.2 --platform iphoneos --compile /Users/sean/Library/Developer/Xcode/DerivedData/bitrisetestios2-fktanifztdkhwmdctevrgogqmnsy/Build/Intermediates.noindex/ArchiveIntermediates/bitrisetestios2/InstallationBuildProductsLocation/Applications/bitrisetestios2.app /Users/sean/git/bitrisetestios2/bitrisetestios2/Assets.xcassets
/* com.apple.actool.compilation-results */
/Users/sean/Library/Developer/Xcode/DerivedData/bitrisetestios2-fktanifztdkhwmdctevrgogqmnsy/Build/Intermediates.noindex/ArchiveIntermediates/bitrisetestios2/IntermediateBuildFilesPath/bitrisetestios2.build/Release-iphoneos/bitrisetestios2.build/assetcatalog_generated_info.plist


ProcessInfoPlistFile /Users/sean/Library/Developer/Xcode/DerivedData/bitrisetestios2-fktanifztdkhwmdctevrgogqmnsy/Build/Intermediates.noindex/ArchiveIntermediates/bitrisetestios2/InstallationBuildProductsLocation/Applications/bitrisetestios2.app/Info.plist /Users/sean/git/bitrisetestios2/bitrisetestios2/Info.plist (in target 'bitrisetestios2' from project 'bitrisetestios2')
    cd /Users/sean/git/bitrisetestios2
    builtin-infoPlistUtility /Users/sean/git/bitrisetestios2/bitrisetestios2/Info.plist -producttype com.apple.product-type.application -genpkginfo /Users/sean/Library/Developer/Xcode/DerivedData/bitrisetestios2-fktanifztdkhwmdctevrgogqmnsy/Build/Intermediates.noindex/ArchiveIntermediates/bitrisetestios2/InstallationBuildProductsLocation/Applications/bitrisetestios2.app/PkgInfo -expandbuildsettings -format binary -platform iphoneos -additionalcontentfile /Users/sean/Library/Developer/Xcode/DerivedData/bitrisetestios2-fktanifztdkhwmdctevrgogqmnsy/Build/Intermediates.noindex/ArchiveIntermediates/bitrisetestios2/IntermediateBuildFilesPath/bitrisetestios2.build/Release-iphoneos/bitrisetestios2.build/Base.lproj/LaunchScreen-SBPartialInfo.plist -additionalcontentfile /Users/sean/Library/Developer/Xcode/DerivedData/bitrisetestios2-fktanifztdkhwmdctevrgogqmnsy/Build/Intermediates.noindex/ArchiveIntermediates/bitrisetestios2/IntermediateBuildFilesPath/bitrisetestios2.build/Release-iphoneos/bitrisetestios2.build/assetcatalog_generated_info.plist -requiredArchitecture arm64 -o /Users/sean/Library/Developer/Xcode/DerivedData/bitrisetestios2-fktanifztdkhwmdctevrgogqmnsy/Build/Intermediates.noindex/ArchiveIntermediates/bitrisetestios2/InstallationBuildProductsLocation/Applications/bitrisetestios2.app/Info.plist

LinkStoryboards (in target 'bitrisetestios2' from project 'bitrisetestios2')
    cd /Users/sean/git/bitrisetestios2
    export XCODE_DEVELOPER_USR_PATH\=/Applications/Xcode.app/Contents/Developer/usr/bin/..
    /Applications/Xcode.app/Contents/Developer/usr/bin/ibtool --errors --warnings --notices --module bitrisetestios2 --target-device iphone --target-device ipad --minimum-deployment-target 14.2 --output-format human-readable-text --link /Users/sean/Library/Developer/Xcode/DerivedData/bitrisetestios2-fktanifztdkhwmdctevrgogqmnsy/Build/Intermediates.noindex/ArchiveIntermediates/bitrisetestios2/InstallationBuildProductsLocation/Applications/bitrisetestios2.app /Users/sean/Library/Developer/Xcode/DerivedData/bitrisetestios2-fktanifztdkhwmdctevrgogqmnsy/Build/Intermediates.noindex/ArchiveIntermediates/bitrisetestios2/IntermediateBuildFilesPath/bitrisetestios2.build/Release-iphoneos/bitrisetestios2.build/Base.lproj/LaunchScreen.storyboardc

GenerateDSYMFile /Users/sean/Library/Developer/Xcode/DerivedData/bitrisetestios2-fktanifztdkhwmdctevrgogqmnsy/Build/Intermediates.noindex/ArchiveIntermediates/bitrisetestios2/BuildProductsPath/Release-iphoneos/bitrisetestios2.app.dSYM /Users/sean/Library/Developer/Xcode/DerivedData/bitrisetestios2-fktanifztdkhwmdctevrgogqmnsy/Build/Intermediates.noindex/ArchiveIntermediates/bitrisetestios2/InstallationBuildProductsLocation/Applications/bitrisetestios2.app/bitrisetestios2 (in target 'bitrisetestios2' from project 'bitrisetestios2')
    cd /Users/sean/git/bitrisetestios2
    /Applications/Xcode.app/Contents/Developer/Toolchains/XcodeDefault.xctoolchain/usr/bin/dsymutil /Users/sean/Library/Developer/Xcode/DerivedData/bitrisetestios2-fktanifztdkhwmdctevrgogqmnsy/Build/Intermediates.noindex/ArchiveIntermediates/bitrisetestios2/InstallationBuildProductsLocation/Applications/bitrisetestios2.app/bitrisetestios2 -o /Users/sean/Library/Developer/Xcode/DerivedData/bitrisetestios2-fktanifztdkhwmdctevrgogqmnsy/Build/Intermediates.noindex/ArchiveIntermediates/bitrisetestios2/BuildProductsPath/Release-iphoneos/bitrisetestios2.app.dSYM

CopySwiftLibs /Users/sean/Library/Developer/Xcode/DerivedData/bitrisetestios2-fktanifztdkhwmdctevrgogqmnsy/Build/Intermediates.noindex/ArchiveIntermediates/bitrisetestios2/InstallationBuildProductsLocation/Applications/bitrisetestios2.app (in target 'bitrisetestios2' from project 'bitrisetestios2')
    cd /Users/sean/git/bitrisetestios2
    export CODESIGN_ALLOCATE\=/Applications/Xcode.app/Contents/Developer/Toolchains/XcodeDefault.xctoolchain/usr/bin/codesign_allocate
    export DEVELOPER_DIR\=/Applications/Xcode.app/Contents/Developer
    export SDKROOT\=/Applications/Xcode.app/Contents/Developer/Platforms/iPhoneOS.platform/Developer/SDKs/iPhoneOS14.2.sdk
    builtin-swiftStdLibTool --copy --verbose --sign 2CD617D3BF822360C91D0F46E3384430829E0B98 --scan-executable /Users/sean/Library/Developer/Xcode/DerivedData/bitrisetestios2-fktanifztdkhwmdctevrgogqmnsy/Build/Intermediates.noindex/ArchiveIntermediates/bitrisetestios2/InstallationBuildProductsLocation/Applications/bitrisetestios2.app/bitrisetestios2 --scan-folder /Users/sean/Library/Developer/Xcode/DerivedData/bitrisetestios2-fktanifztdkhwmdctevrgogqmnsy/Build/Intermediates.noindex/ArchiveIntermediates/bitrisetestios2/InstallationBuildProductsLocation/Applications/bitrisetestios2.app/Frameworks --scan-folder /Users/sean/Library/Developer/Xcode/DerivedData/bitrisetestios2-fktanifztdkhwmdctevrgogqmnsy/Build/Intermediates.noindex/ArchiveIntermediates/bitrisetestios2/InstallationBuildProductsLocation/Applications/bitrisetestios2.app/PlugIns --platform iphoneos --toolchain /Applications/Xcode.app/Contents/Developer/Toolchains/XcodeDefault.xctoolchain --destination /Users/sean/Library/Developer/Xcode/DerivedData/bitrisetestios2-fktanifztdkhwmdctevrgogqmnsy/Build/Intermediates.noindex/ArchiveIntermediates/bitrisetestios2/InstallationBuildProductsLocation/Applications/bitrisetestios2.app/Frameworks --unsigned-destination /Users/sean/Library/Developer/Xcode/DerivedData/bitrisetestios2-fktanifztdkhwmdctevrgogqmnsy/Build/Intermediates.noindex/ArchiveIntermediates/bitrisetestios2/BuildProductsPath/SwiftSupport --emit-dependency-info /Users/sean/Library/Developer/Xcode/DerivedData/bitrisetestios2-fktanifztdkhwmdctevrgogqmnsy/Build/Intermediates.noindex/ArchiveIntermediates/bitrisetestios2/IntermediateBuildFilesPath/bitrisetestios2.build/Release-iphoneos/bitrisetestios2.build/SwiftStdLibToolInputDependencies.dep --filter-for-swift-os

Strip /Users/sean/Library/Developer/Xcode/DerivedData/bitrisetestios2-fktanifztdkhwmdctevrgogqmnsy/Build/Intermediates.noindex/ArchiveIntermediates/bitrisetestios2/InstallationBuildProductsLocation/Applications/bitrisetestios2.app/bitrisetestios2 (in target 'bitrisetestios2' from project 'bitrisetestios2')
    cd /Users/sean/git/bitrisetestios2
    /Applications/Xcode.app/Contents/Developer/Toolchains/XcodeDefault.xctoolchain/usr/bin/strip /Users/sean/Library/Developer/Xcode/DerivedData/bitrisetestios2-fktanifztdkhwmdctevrgogqmnsy/Build/Intermediates.noindex/ArchiveIntermediates/bitrisetestios2/InstallationBuildProductsLocation/Applications/bitrisetestios2.app/bitrisetestios2

SetOwnerAndGroup sean:staff /Users/sean/Library/Developer/Xcode/DerivedData/bitrisetestios2-fktanifztdkhwmdctevrgogqmnsy/Build/Intermediates.noindex/ArchiveIntermediates/bitrisetestios2/InstallationBuildProductsLocation/Applications/bitrisetestios2.app (in target 'bitrisetestios2' from project 'bitrisetestios2')
    cd /Users/sean/git/bitrisetestios2
    /usr/sbin/chown -RH sean:staff /Users/sean/Library/Developer/Xcode/DerivedData/bitrisetestios2-fktanifztdkhwmdctevrgogqmnsy/Build/Intermediates.noindex/ArchiveIntermediates/bitrisetestios2/InstallationBuildProductsLocation/Applications/bitrisetestios2.app

SetMode u+w,go-w,a+rX /Users/sean/Library/Developer/Xcode/DerivedData/bitrisetestios2-fktanifztdkhwmdctevrgogqmnsy/Build/Intermediates.noindex/ArchiveIntermediates/bitrisetestios2/InstallationBuildProductsLocation/Applications/bitrisetestios2.app (in target 'bitrisetestios2' from project 'bitrisetestios2')
    cd /Users/sean/git/bitrisetestios2
    /bin/chmod -RH u+w,go-w,a+rX /Users/sean/Library/Developer/Xcode/DerivedData/bitrisetestios2-fktanifztdkhwmdctevrgogqmnsy/Build/Intermediates.noindex/ArchiveIntermediates/bitrisetestios2/InstallationBuildProductsLocation/Applications/bitrisetestios2.app

CodeSign /Users/sean/Library/Developer/Xcode/DerivedData/bitrisetestios2-fktanifztdkhwmdctevrgogqmnsy/Build/Intermediates.noindex/ArchiveIntermediates/bitrisetestios2/InstallationBuildProductsLocation/Applications/bitrisetestios2.app (in target 'bitrisetestios2' from project 'bitrisetestios2')
    cd /Users/sean/git/bitrisetestios2
    export CODESIGN_ALLOCATE\=/Applications/Xcode.app/Contents/Developer/Toolchains/XcodeDefault.xctoolchain/usr/bin/codesign_allocate
    
Signing Identity:     "Apple Development: Ignatio Kang (HARYW7QX2Z)"
Provisioning Profile: "iOS Team Provisioning Profile: *"
                      (0cac0985-41c7-44ac-9ddf-9e25b810b339)

    /usr/bin/codesign --force --sign 2CD617D3BF822360C91D0F46E3384430829E0B98 --entitlements /Users/sean/Library/Developer/Xcode/DerivedData/bitrisetestios2-fktanifztdkhwmdctevrgogqmnsy/Build/Intermediates.noindex/ArchiveIntermediates/bitrisetestios2/IntermediateBuildFilesPath/bitrisetestios2.build/Release-iphoneos/bitrisetestios2.build/bitrisetestios2.app.xcent /Users/sean/Library/Developer/Xcode/DerivedData/bitrisetestios2-fktanifztdkhwmdctevrgogqmnsy/Build/Intermediates.noindex/ArchiveIntermediates/bitrisetestios2/InstallationBuildProductsLocation/Applications/bitrisetestios2.app

RegisterExecutionPolicyException /Users/sean/Library/Developer/Xcode/DerivedData/bitrisetestios2-fktanifztdkhwmdctevrgogqmnsy/Build/Intermediates.noindex/ArchiveIntermediates/bitrisetestios2/InstallationBuildProductsLocation/Applications/bitrisetestios2.app (in target 'bitrisetestios2' from project 'bitrisetestios2')
    cd /Users/sean/git/bitrisetestios2
    builtin-RegisterExecutionPolicyException /Users/sean/Library/Developer/Xcode/DerivedData/bitrisetestios2-fktanifztdkhwmdctevrgogqmnsy/Build/Intermediates.noindex/ArchiveIntermediates/bitrisetestios2/InstallationBuildProductsLocation/Applications/bitrisetestios2.app

Validate /Users/sean/Library/Developer/Xcode/DerivedData/bitrisetestios2-fktanifztdkhwmdctevrgogqmnsy/Build/Intermediates.noindex/ArchiveIntermediates/bitrisetestios2/InstallationBuildProductsLocation/Applications/bitrisetestios2.app (in target 'bitrisetestios2' from project 'bitrisetestios2')
    cd /Users/sean/git/bitrisetestios2
    builtin-validationUtility /Users/sean/Library/Developer/Xcode/DerivedData/bitrisetestios2-fktanifztdkhwmdctevrgogqmnsy/Build/Intermediates.noindex/ArchiveIntermediates/bitrisetestios2/InstallationBuildProductsLocation/Applications/bitrisetestios2.app

Touch /Users/sean/Library/Developer/Xcode/DerivedData/bitrisetestios2-fktanifztdkhwmdctevrgogqmnsy/Build/Intermediates.noindex/ArchiveIntermediates/bitrisetestios2/InstallationBuildProductsLocation/Applications/bitrisetestios2.app (in target 'bitrisetestios2' from project 'bitrisetestios2')
    cd /Users/sean/git/bitrisetestios2
    /usr/bin/touch -c /Users/sean/Library/Developer/Xcode/DerivedData/bitrisetestios2-fktanifztdkhwmdctevrgogqmnsy/Build/Intermediates.noindex/ArchiveIntermediates/bitrisetestios2/InstallationBuildProductsLocation/Applications/bitrisetestios2.app

** ARCHIVE SUCCEEDED **